{
    "cwd": ".",
    "files": [
        "**/*.ts",
        "**/*.js"
    ],
    "document": {
        "info": {
            "title": "Hello API",
            "description": "API Beschreibung für die Anwendung Hello",
            "version": "1.0.0",
            "contact": {
                "name": "",
                "email": ""
            }
        },
        "basePath": "/api",
        "schemes": [
            "http"
        ],
        "tags": {
            "application": "Anwendung"
        }
    }
}